{
    "banners": [
            {
                "idbanner": 1,
                "image_path": "https://via.placeholder.com/1920x460",
                "title": "This is a campaign 1",
                "description": "Brief description of a campaign 1",
                "link": "https://www.google.com.br",
                "active": true
            },
            {
                "idbanner": 2,
                "image_path": "https://via.placeholder.com/1920x460",
                "title": "This is a campaign 2",
                "description": "Brief description of a campaign 2",
                "link": "https://www.google.com.br",
                "active": false
            },
            {
                "idbanner": 3,
                "image_path": "https://via.placeholder.com/1920x460",
                "title": "This is a campaign 3",
                "description": "Brief description of a campaign 3",
                "link": "https://www.google.com.br",
                "active": false
            },
            {
                "idbanner": 4,
                "image_path": "https://via.placeholder.com/1920x460",
                "title": "This is a campaign 4",
                "description": "Brief description of a campaign 4",
                "link": "https://www.google.com.br",
                "active": true
            }
        ],
    "total": 13,
    "limit": 4,
    "page": 1,
    "pages": 3
}